{
  "myrecipients": [
    {
      "pkmyrecipientid": "1001",
      "myrecipientname": "Sanjeev"
    },
    {
      "pkmyrecipientid": "1002",
      "myrecipientname": "Aman"
    },
    {
      "pkmyrecipientid": "1003",
      "myrecipientname": "Tejas"
    },
    {
      "pkmyrecipientid": "1004",
      "myrecipientname": "Sourabh"
    },
    {
      "pkmyrecipientid": "1005",
      "myrecipientname": "Rohit"
    }
  ]
}